18장 modelr을 이용한 모델의 기초
…
## [1] 2.665212

이제 이전에 정의된 모든 모델의 차이를 계산하기 위해 purrr를 사용할 수 있다. 거리 차이를 계산하는 함수에서는 모델이, 길이가 2인 수치형 벡터 형식으로 입력되어야 하므로 도우미 함수가 필요하다. (purrr : 함수형 프로그래밍 도구)

sim1_dist <- function(a1, a2) {
  measure_distance(c(a1, a2), sim1)
}

models <- models %>%
  mutate(dist = purrr::map2_dbl(a1, a2, sim1_dist))

models

## # A tibble: 250 x 3
##         a1     a2  dist
##      <dbl>  <dbl> <dbl>
##  1 -5.31   -3.90  45.6 
##  2 20.1     4.36  29.4 
##  3 37.6    -3.78  16.9 
##  4 22.6     2.66  21.8 
##  5  7.38    0.412  7.81
##  6 23.8    -2.49  14.3 
##  7  0.0760 -1.10  23.4 
##  8 -5.66   -4.35  48.8 
##  9  6.29   -0.176 12.2 
## 10 -8.79    4.00   6.41
## # ... with 240 more rows
…
18.3.2 잔차

예측값의 다른 측면에는 잔차가 있다. 예측값은 모델이 포착한 패턴을 나타내고, 잔차는 모델이 놓친 것을 알려준다. 잔차는 이전에 계산한 예측값과 관측값 사이의 차이값이다.

add_predictions()와 유사한 기능을 하는 add_residuals()을 사용해서 데이터에 잔차를 추가한다. 주의: 만들어진 그리드가 아니라 원래의 데이터셋을 사용한다. 이는 잔차를 계산하는데 실제 y값이 필요하기 때문이다.

sim1 <- sim1 %>%
  add_residuals(sim1_mod)

sim1

## # A tibble: 30 x 3
##        x     y    resid
##    <int> <dbl>    <dbl>
##  1     1  4.20 -2.07   
##  2     1  7.51  1.24   
##  3     1  2.13 -4.15   
##  4     2  8.99  0.665  
##  5     2 10.2   1.92   
##  6     2 11.3   2.97   
##  7     3  7.36 -3.02   
##  8     3 10.5   0.130  
##  9     3 10.5   0.136  
## 10     4 12.4   0.00763
## # ... with 20 more rows
…
이 모델을 시각화하려면 새로운 두가지 수법이 필요하다.

두 개의 예측 변수에 대해 data_grid()를 적용해야 한다. 이 함수는 x1과 x2의 고유한 값에 대한 모든 조합을 생성한다.

두 모델로 동시에 예측값을 생성하기 위해서 행으로 각 예측값을 추가하는 gather_predictions()를 사용할 수 있다. gather_predictions()를 보완하는 함수는 각각의 예측값을 새로운 열로 추가하는 spread_predictions()이다.

위 함수를 함꼐 사용하면 다음과 같은 결과를 얻을 수 있다.

grid <- sim3 %>%
  data_grid(x1, x2) %>%
  gather_predictions(mod1, mod2)

grid

## # A tibble: 80 x 4
##    model    x1 x2     pred
##    <chr> <int> <fct> <dbl>
##  1 mod1      1 a      1.67
##  2 mod1      1 b      4.56
##  3 mod1      1 c      6.48
##  4 mod1      1 d      4.03
##  5 mod1      2 a      1.48
##  6 mod1      2 b      4.37
##  7 mod1      2 c      6.28
##  8 mod1      2 d      3.84
##  9 mod1      3 a      1.28
## 10 mod1      3 b      4.17
## # ... with 70 more rows
…
mod1 <- lm(y ~ x1 + x2, data = sim4)

mod2 <- lm(y ~ x1 * x2, data = sim4)

grid <- sim4 %>%
  data_grid(
    x1 = seq_range(x1, 5),
    x2 = seq_range(x2, 5)
  ) %>%
  gather_predictions(mod1, mod2)

grid

## # A tibble: 50 x 4
##    model    x1    x2   pred
##    <chr> <dbl> <dbl>  <dbl>
##  1 mod1   -1    -1    0.996
##  2 mod1   -1    -0.5 -0.395
##  3 mod1   -1     0   -1.79 
##  4 mod1   -1     0.5 -3.18 
##  5 mod1   -1     1   -4.57 
##  6 mod1   -0.5  -1    1.91 
##  7 mod1   -0.5  -0.5  0.516
##  8 mod1   -0.5   0   -0.875
##  9 mod1   -0.5   0.5 -2.27 
## 10 mod1   -0.5   1   -3.66 
## # ... with 40 more rows
…
